^D:\VCPROJ\HFOREST\HFOREST\DEBUG\CRFOREST-DETECTOR.OBJ|D:\VCPROJ\HFOREST\HFOREST\DEBUG\CRFORESTDETECTOR.OBJ|D:\VCPROJ\HFOREST\HFOREST\DEBUG\CRPATCH.OBJ|D:\VCPROJ\HFOREST\HFOREST\DEBUG\CRTREE.OBJ|D:\VCPROJ\HFOREST\HFOREST\DEBUG\HFOREST.EXE.EMBED.MANIFEST.RES|D:\VCPROJ\HFOREST\HFOREST\DEBUG\HOG.OBJ
D:\VCPROJ\HFOREST\HFOREST\LIB\OPENCV_HIGHGUI247D.LIB
D:\VCPROJ\HFOREST\HFOREST\LIB\OPENCV_IMGPROC247D.LIB
D:\VCPROJ\HFOREST\HFOREST\LIB\OPENCV_CORE247D.LIB
D:\VCPROJ\HFOREST\HFOREST\LIB\OPENCV_ML247D.LIB
C:\PROGRAM FILES (X86)\MICROSOFT SDKS\WINDOWS\V7.0A\LIB\KERNEL32.LIB
C:\PROGRAM FILES (X86)\MICROSOFT SDKS\WINDOWS\V7.0A\LIB\USER32.LIB
C:\PROGRAM FILES (X86)\MICROSOFT SDKS\WINDOWS\V7.0A\LIB\GDI32.LIB
C:\PROGRAM FILES (X86)\MICROSOFT SDKS\WINDOWS\V7.0A\LIB\WINSPOOL.LIB
C:\PROGRAM FILES (X86)\MICROSOFT SDKS\WINDOWS\V7.0A\LIB\COMDLG32.LIB
C:\PROGRAM FILES (X86)\MICROSOFT SDKS\WINDOWS\V7.0A\LIB\ADVAPI32.LIB
C:\PROGRAM FILES (X86)\MICROSOFT SDKS\WINDOWS\V7.0A\LIB\SHELL32.LIB
C:\PROGRAM FILES (X86)\MICROSOFT SDKS\WINDOWS\V7.0A\LIB\OLE32.LIB
C:\PROGRAM FILES (X86)\MICROSOFT SDKS\WINDOWS\V7.0A\LIB\OLEAUT32.LIB
C:\PROGRAM FILES (X86)\MICROSOFT SDKS\WINDOWS\V7.0A\LIB\UUID.LIB
C:\PROGRAM FILES (X86)\MICROSOFT SDKS\WINDOWS\V7.0A\LIB\ODBC32.LIB
C:\PROGRAM FILES (X86)\MICROSOFT SDKS\WINDOWS\V7.0A\LIB\ODBCCP32.LIB
D:\VCPROJ\HFOREST\HFOREST\DEBUG\HFOREST.EXE.EMBED.MANIFEST.RES
D:\VCPROJ\HFOREST\HFOREST\DEBUG\CRFOREST-DETECTOR.OBJ
D:\VCPROJ\HFOREST\HFOREST\DEBUG\CRFORESTDETECTOR.OBJ
D:\VCPROJ\HFOREST\HFOREST\DEBUG\CRPATCH.OBJ
D:\VCPROJ\HFOREST\HFOREST\DEBUG\CRTREE.OBJ
D:\VCPROJ\HFOREST\HFOREST\DEBUG\HOG.OBJ
C:\WINDOWS\SYSTEM32\TZRES.DLL
D:\VCPROJ\HFOREST\DEBUG\HFOREST.ILK
D:\VCPROJ\HFOREST\DEBUG\HFOREST.EXE
D:\VCPROJ\HFOREST\DEBUG\HFOREST.PDB
C:\WINDOWS\GLOBALIZATION\SORTING\SORTDEFAULT.NLS
C:\PROGRAM FILES (X86)\MICROSOFT VISUAL STUDIO 10.0\VC\LIB\MSVCPRTD.LIB
C:\PROGRAM FILES (X86)\MICROSOFT VISUAL STUDIO 10.0\VC\LIB\MSVCRTD.LIB
C:\PROGRAM FILES (X86)\MICROSOFT VISUAL STUDIO 10.0\VC\LIB\OLDNAMES.LIB
^C:\RESEARCHDOCUMENTS\VCPROJ\HOUGHFOREST\HFOREST\DEBUG\CRFOREST-DETECTOR.OBJ|C:\RESEARCHDOCUMENTS\VCPROJ\HOUGHFOREST\HFOREST\DEBUG\CRFORESTDETECTOR.OBJ|C:\RESEARCHDOCUMENTS\VCPROJ\HOUGHFOREST\HFOREST\DEBUG\CRPATCH.OBJ|C:\RESEARCHDOCUMENTS\VCPROJ\HOUGHFOREST\HFOREST\DEBUG\CRTREE.OBJ|C:\RESEARCHDOCUMENTS\VCPROJ\HOUGHFOREST\HFOREST\DEBUG\HFOREST.EXE.EMBED.MANIFEST.RES|C:\RESEARCHDOCUMENTS\VCPROJ\HOUGHFOREST\HFOREST\DEBUG\HOG.OBJ
C:\WINDOWS\GLOBALIZATION\SORTING\SORTDEFAULT.NLS
C:\RESEARCHDOCUMENTS\VCPROJ\HOUGHFOREST\HFOREST\LIB\OPENCV_HIGHGUI247D.LIB
C:\RESEARCHDOCUMENTS\VCPROJ\HOUGHFOREST\HFOREST\LIB\OPENCV_IMGPROC247D.LIB
C:\RESEARCHDOCUMENTS\VCPROJ\HOUGHFOREST\HFOREST\LIB\OPENCV_CORE247D.LIB
C:\PROGRAM FILES (X86)\MICROSOFT SDKS\WINDOWS\V7.0A\LIB\KERNEL32.LIB
C:\PROGRAM FILES (X86)\MICROSOFT SDKS\WINDOWS\V7.0A\LIB\USER32.LIB
C:\PROGRAM FILES (X86)\MICROSOFT SDKS\WINDOWS\V7.0A\LIB\GDI32.LIB
C:\PROGRAM FILES (X86)\MICROSOFT SDKS\WINDOWS\V7.0A\LIB\WINSPOOL.LIB
C:\PROGRAM FILES (X86)\MICROSOFT SDKS\WINDOWS\V7.0A\LIB\COMDLG32.LIB
C:\PROGRAM FILES (X86)\MICROSOFT SDKS\WINDOWS\V7.0A\LIB\ADVAPI32.LIB
C:\PROGRAM FILES (X86)\MICROSOFT SDKS\WINDOWS\V7.0A\LIB\SHELL32.LIB
C:\PROGRAM FILES (X86)\MICROSOFT SDKS\WINDOWS\V7.0A\LIB\OLE32.LIB
C:\PROGRAM FILES (X86)\MICROSOFT SDKS\WINDOWS\V7.0A\LIB\OLEAUT32.LIB
C:\PROGRAM FILES (X86)\MICROSOFT SDKS\WINDOWS\V7.0A\LIB\UUID.LIB
C:\PROGRAM FILES (X86)\MICROSOFT SDKS\WINDOWS\V7.0A\LIB\ODBC32.LIB
C:\PROGRAM FILES (X86)\MICROSOFT SDKS\WINDOWS\V7.0A\LIB\ODBCCP32.LIB
C:\RESEARCHDOCUMENTS\VCPROJ\HOUGHFOREST\HFOREST\DEBUG\HFOREST.EXE.EMBED.MANIFEST.RES
C:\RESEARCHDOCUMENTS\VCPROJ\HOUGHFOREST\HFOREST\DEBUG\CRFOREST-DETECTOR.OBJ
C:\RESEARCHDOCUMENTS\VCPROJ\HOUGHFOREST\HFOREST\DEBUG\CRFORESTDETECTOR.OBJ
C:\RESEARCHDOCUMENTS\VCPROJ\HOUGHFOREST\HFOREST\DEBUG\CRPATCH.OBJ
C:\RESEARCHDOCUMENTS\VCPROJ\HOUGHFOREST\HFOREST\DEBUG\CRTREE.OBJ
C:\RESEARCHDOCUMENTS\VCPROJ\HOUGHFOREST\HFOREST\DEBUG\HOG.OBJ
C:\WINDOWS\SYSTEM32\TZRES.DLL
C:\RESEARCHDOCUMENTS\VCPROJ\HOUGHFOREST\DEBUG\HFOREST.ILK
C:\RESEARCHDOCUMENTS\VCPROJ\HOUGHFOREST\DEBUG\HFOREST.EXE
C:\RESEARCHDOCUMENTS\VCPROJ\HOUGHFOREST\DEBUG\HFOREST.PDB
C:\PROGRAM FILES (X86)\MICROSOFT VISUAL STUDIO 10.0\VC\LIB\MSVCPRTD.LIB
C:\PROGRAM FILES (X86)\MICROSOFT VISUAL STUDIO 10.0\VC\LIB\MSVCRTD.LIB
C:\PROGRAM FILES (X86)\MICROSOFT VISUAL STUDIO 10.0\VC\LIB\OLDNAMES.LIB
