^D:\VCPROJ\HFOREST\HFOREST\DEBUG\HFOREST.EXE.INTERMEDIATE.MANIFEST
D:\VCPROJ\HFOREST\HFOREST\DEBUG\HFOREST.EXE.EMBED.MANIFEST
^C:\RESEARCHDOCUMENTS\VCPROJ\HOUGHFOREST\HFOREST\DEBUG\HFOREST.EXE.INTERMEDIATE.MANIFEST
C:\WINDOWS\GLOBALIZATION\SORTING\SORTDEFAULT.NLS
C:\RESEARCHDOCUMENTS\VCPROJ\HOUGHFOREST\HFOREST\DEBUG\HFOREST.EXE.EMBED.MANIFEST
