^D:\VCPROJ\HFOREST\HFOREST\DEBUG\HFOREST_MANIFEST.RC
/nologo /fo"Debug\hForest.exe.embed.manifest.res" Debug\hForest_manifest.rc /nologo /fo"Debug\hForest.exe.embed.manifest.res" D:\VCPROJ\HFOREST\HFOREST\DEBUG\HFOREST_MANIFEST.RC
^C:\RESEARCHDOCUMENTS\VCPROJ\HOUGHFOREST\HFOREST\DEBUG\HFOREST_MANIFEST.RC
/nologo /fo"Debug\hForest.exe.embed.manifest.res" Debug\hForest_manifest.rc /nologo /fo"Debug\hForest.exe.embed.manifest.res" C:\RESEARCHDOCUMENTS\VCPROJ\HOUGHFOREST\HFOREST\DEBUG\HFOREST_MANIFEST.RC
